graph {
	rankdir=LR;
	subgraph "0ad" { 
		label="0ad"
		"0ad-data" -- "0ad";
		"0ad-data" -- "0ad";
		"0ad-data-common" -- "0ad";
		"0ad-data-common" -- "0ad";
		"libboost-filesystem1.62.0," -- "0ad";
		"libc6" -- "0ad";
		"libcurl3-gnutls" -- "0ad";
		"libenet7," -- "0ad";
		"libgcc1" -- "0ad";
		"libgl1-mesa-glx" -- "0ad";
		"libgl1," -- "0ad";
		"libgloox15," -- "0ad";
		"libicu57" -- "0ad";
		"libminiupnpc10" -- "0ad";
		"libnspr4" -- "0ad";
		"libnvtt2," -- "0ad";
		"libopenal1" -- "0ad";
		"libpng16-16" -- "0ad";
		"libsdl2-2.0-0" -- "0ad";
		"libstdc++6" -- "0ad";
		"libvorbisfile3" -- "0ad";
		"libwxbase3.0-0v5" -- "0ad";
		"libwxgtk3.0-0v5" -- "0ad";
		"libx11-6," -- "0ad";
		"libxcursor1" -- "0ad";
		"libxml2" -- "0ad";
		"zlib1g" -- "0ad";
	}
	subgraph "0ad-data-common" { 
		label="0ad-data-common"
		"fonts-dejavu-core" -- "0ad-data-common";
		"ttf-dejavu-core," -- "0ad-data-common";
		"fonts-freefont-ttf" -- "0ad-data-common";
		"ttf-freefont," -- "0ad-data-common";
		"fonts-texgyre" -- "0ad-data-common";
		"tex-gyre" -- "0ad-data-common";
	}
	subgraph "0xffff" { 
		label="0xffff"
		"libc6" -- "0xffff";
		"libusb-0.1-4" -- "0xffff";
	}
	subgraph "2048-qt" { 
		label="2048-qt"
		"libc6" -- "2048-qt";
		"libgcc1" -- "2048-qt";
		"libgl1-mesa-glx" -- "2048-qt";
		"libgl1," -- "2048-qt";
		"libqt5core5a" -- "2048-qt";
		"libqt5gui5" -- "2048-qt";
		"libqt5network5" -- "2048-qt";
		"libqt5qml5" -- "2048-qt";
		"libqt5quick5" -- "2048-qt";
		"libqt5widgets5" -- "2048-qt";
		"libstdc++6" -- "2048-qt";
		"qml-module-qtquick-controls," -- "2048-qt";
		"qml-module-qtquick-dialogs" -- "2048-qt";
	}
	subgraph "2ping" { 
		label="2ping"
		"init-system-helpers" -- "2ping";
		"python:any" -- "2ping";
		"python:any" -- "2ping";
		"python," -- "2ping";
		"python-argparse," -- "2ping";
		"python-pkg-resources" -- "2ping";
	}
	subgraph "2vcard" { 
		label="2vcard"
		"perl" -- "2vcard";
	}
	subgraph "389-admin" { 
		label="389-admin"
		"389-ds-base," -- "389-admin";
		"apache2," -- "389-admin";
		"libapache2-mod-nss," -- "389-admin";
		"libcgi-pm-perl," -- "389-admin";
		"libds-admin-serv0" -- "389-admin";
		"libmozilla-ldap-perl," -- "389-admin";
		"libnss3-tools," -- "389-admin";
		"init-system-helpers" -- "389-admin";
		"libadminutil0" -- "389-admin";
		"libc6" -- "389-admin";
		"libldap-2.4-2" -- "389-admin";
		"libnspr4" -- "389-admin";
		"libnss3" -- "389-admin";
	}
	subgraph "libds-admin-serv0" { 
		label="libds-admin-serv0"
		"libadminutil0" -- "libds-admin-serv0";
		"libc6" -- "libds-admin-serv0";
		"libldap-2.4-2" -- "libds-admin-serv0";
		"libnspr4" -- "libds-admin-serv0";
	}
	subgraph "389-admin-console" { 
		label="389-admin-console"
		"libidm-console-framework-java" -- "389-admin-console";
	}
	subgraph "libadminutil-dev" { 
		label="libadminutil-dev"
		"libadminutil0" -- "libadminutil-dev";
		"libnspr4-dev," -- "libadminutil-dev";
		"libnss3-dev," -- "libadminutil-dev";
		"libicu-dev," -- "libadminutil-dev";
		"libldap2-dev" -- "libadminutil-dev";
	}
	subgraph "libadminutil0" { 
		label="libadminutil0"
		"libc6" -- "libadminutil0";
		"libicu57" -- "libadminutil0";
		"libldap-2.4-2" -- "libadminutil0";
		"libnspr4" -- "libadminutil0";
		"libnss3" -- "libadminutil0";
		"libadminutil-data" -- "libadminutil0";
	}
	subgraph "389-console" { 
		label="389-console"
		"default-jre," -- "389-console";
		"libidm-console-framework-java" -- "389-console";
	}
	subgraph "389-ds" { 
		label="389-ds"
		"389-admin," -- "389-ds";
		"389-admin-console," -- "389-ds";
		"389-console," -- "389-ds";
		"389-ds-base," -- "389-ds";
		"389-ds-console," -- "389-ds";
		"389-dsgw" -- "389-ds";
	}
	subgraph "389-ds-base" { 
		label="389-ds-base"
		"389-ds-base-libs" -- "389-ds-base";
		"adduser," -- "389-ds-base";
		"acl," -- "389-ds-base";
		"ldap-utils," -- "389-ds-base";
		"libmozilla-ldap-perl," -- "389-ds-base";
		"libnetaddr-ip-perl," -- "389-ds-base";
		"libperl4-corelibs-perl" -- "389-ds-base";
		"perl" -- "389-ds-base";
		"libsasl2-modules-gssapi-mit," -- "389-ds-base";
		"libsocket-getaddrinfo-perl," -- "389-ds-base";
		"python," -- "389-ds-base";
		"systemd," -- "389-ds-base";
		"init-system-helpers" -- "389-ds-base";
		"libc6" -- "389-ds-base";
		"libdb5.3," -- "389-ds-base";
		"libgcc1" -- "389-ds-base";
		"libicu57" -- "389-ds-base";
		"libldap-2.4-2" -- "389-ds-base";
		"libnspr4" -- "389-ds-base";
		"libnss3" -- "389-ds-base";
		"libpam0g" -- "389-ds-base";
		"libpci3" -- "389-ds-base";
		"libsasl2-2," -- "389-ds-base";
		"libsensors4" -- "389-ds-base";
		"libsnmp30" -- "389-ds-base";
		"libstdc++6" -- "389-ds-base";
		"libsvrcore0" -- "389-ds-base";
		"libsystemd0," -- "389-ds-base";
		"libwrap0" -- "389-ds-base";
	}
	subgraph "389-ds-base-dev" { 
		label="389-ds-base-dev"
		"389-ds-base-libs" -- "389-ds-base-dev";
		"libldap2-dev," -- "389-ds-base-dev";
		"libnspr4-dev" -- "389-ds-base-dev";
	}
	subgraph "389-ds-base-libs" { 
		label="389-ds-base-libs"
		"libc6" -- "389-ds-base-libs";
		"libcomerr2" -- "389-ds-base-libs";
		"libk5crypto3" -- "389-ds-base-libs";
		"libkrb5-3" -- "389-ds-base-libs";
		"libldap-2.4-2" -- "389-ds-base-libs";
		"libnspr4" -- "389-ds-base-libs";
		"libnss3" -- "389-ds-base-libs";
		"libpcre3," -- "389-ds-base-libs";
		"libsasl2-2," -- "389-ds-base-libs";
		"libsvrcore0" -- "389-ds-base-libs";
		"libsystemd0" -- "389-ds-base-libs";
	}
	subgraph "389-ds-console" { 
		label="389-ds-console"
		"389-admin" -- "389-ds-console";
	}
	subgraph "389-dsgw" { 
		label="389-dsgw"
		"libadminutil0" -- "389-dsgw";
		"libc6" -- "389-dsgw";
		"libicu57" -- "389-dsgw";
		"libldap-2.4-2" -- "389-dsgw";
		"libnspr4" -- "389-dsgw";
		"libnss3" -- "389-dsgw";
		"libsasl2-2," -- "389-dsgw";
		"389-admin," -- "389-dsgw";
		"libmozilla-ldap-perl" -- "389-dsgw";
	}
	subgraph "3dchess" { 
		label="3dchess"
		"libc6" -- "3dchess";
		"libx11-6," -- "3dchess";
		"libxpm4," -- "3dchess";
		"libxt6," -- "3dchess";
		"xaw3dg" -- "3dchess";
	}
	subgraph "3depict" { 
		label="3depict"
		"libc6" -- "3depict";
		"libftgl2" -- "3depict";
		"libgcc1" -- "3depict";
		"libgl1-mesa-glx" -- "3depict";
		"libgl1," -- "3depict";
		"libglu1-mesa" -- "3depict";
		"libglu1," -- "3depict";
		"libgomp1" -- "3depict";
		"libgsl2," -- "3depict";
		"libmgl7.4.1," -- "3depict";
		"libpng16-16" -- "3depict";
		"libqhull7," -- "3depict";
		"libstdc++6" -- "3depict";
		"libwxbase3.0-0v5" -- "3depict";
		"libwxgtk3.0-0v5" -- "3depict";
		"libxml2" -- "3depict";
	}
	subgraph "3dldf" { 
		label="3dldf"
		"libc6" -- "3dldf";
		"libgcc1" -- "3dldf";
		"libgsl2," -- "3dldf";
		"libstdc++6" -- "3dldf";
	}
	subgraph "4digits" { 
		label="4digits"
		"libc6" -- "4digits";
		"python:any," -- "4digits";
		"python-glade2" -- "4digits";
	}
	subgraph "4g8" { 
		label="4g8"
		"libc6" -- "4g8";
		"libnet1" -- "4g8";
		"libpcap0.8" -- "4g8";
	}
	subgraph "4store" { 
		label="4store"
		"adduser," -- "4store";
		"netbase," -- "4store";
		"libavahi-client3" -- "4store";
		"libavahi-common3" -- "4store";
		"libavahi-glib1" -- "4store";
		"libc6" -- "4store";
		"libglib2.0-0" -- "4store";
		"libncurses5" -- "4store";
		"libpcre3," -- "4store";
		"libraptor2-0" -- "4store";
		"librasqal3" -- "4store";
		"libreadline7" -- "4store";
		"libstemmer0d" -- "4store";
		"libtinfo5" -- "4store";
		"libuuid1" -- "4store";
		"libxml2" -- "4store";
		"zlib1g" -- "4store";
	}
	subgraph "lib4store-dev" { 
		label="lib4store-dev"
		"lib4store0" -- "lib4store-dev";
	}
	subgraph "lib4store0" { 
		label="lib4store0"
		"libavahi-client3" -- "lib4store0";
		"libavahi-common3" -- "lib4store0";
		"libavahi-glib1" -- "lib4store0";
		"libc6" -- "lib4store0";
		"libglib2.0-0" -- "lib4store0";
	}
	subgraph "4ti2" { 
		label="4ti2"
		"libc6" -- "4ti2";
		"libgcc1" -- "4ti2";
		"libglpk40" -- "4ti2";
		"libgmp10," -- "4ti2";
		"libgmpxx4ldbl," -- "4ti2";
		"libstdc++6" -- "4ti2";
	}
	subgraph "6tunnel" { 
		label="6tunnel"
		"libc6" -- "6tunnel";
	}
	subgraph "7kaa" { 
		label="7kaa"
		"7kaa-data" -- "7kaa";
		"libc6" -- "7kaa";
		"libenet7," -- "7kaa";
		"libgcc1" -- "7kaa";
		"libopenal1" -- "7kaa";
		"libsdl2-2.0-0" -- "7kaa";
		"libstdc++6" -- "7kaa";
		"libuuid1" -- "7kaa";
	}
	subgraph "9base" { 
		label="9base"
		"libc6" -- "9base";
	}
	subgraph "9menu" { 
		label="9menu"
		"libc6" -- "9menu";
		"libx11-6" -- "9menu";
	}
	subgraph "9mount" { 
		label="9mount"
		"libc6" -- "9mount";
	}
	subgraph "9wm" { 
		label="9wm"
		"libc6" -- "9wm";
		"libx11-6," -- "9wm";
		"libxext6" -- "9wm";
	}
	subgraph "a2jmidid" { 
		label="a2jmidid"
		"python-dbus," -- "a2jmidid";
		"python:any," -- "a2jmidid";
		"libasound2" -- "a2jmidid";
		"libc6" -- "a2jmidid";
		"libdbus-1-3" -- "a2jmidid";
		"libjack-jackd2-0" -- "a2jmidid";
		"libjack-0.125" -- "a2jmidid";
	}
	subgraph "a2ps" { 
		label="a2ps"
		"file," -- "a2ps";
		"psutils," -- "a2ps";
		"libc6" -- "a2ps";
		"libpaper1" -- "a2ps";
	}
	subgraph "liba52-0.7.4" { 
		label="liba52-0.7.4"
		"libc6" -- "liba52-0.7.4";
	}
	subgraph "liba52-0.7.4-dev" { 
		label="liba52-0.7.4-dev"
		"liba52-0.7.4" -- "liba52-0.7.4-dev";
		"libc6" -- "liba52-0.7.4-dev";
	}
	subgraph "a56" { 
		label="a56"
		"libc6" -- "a56";
	}
	subgraph "a7xpg" { 
		label="a7xpg"
		"a7xpg-data" -- "a7xpg";
		"libc6" -- "a7xpg";
		"libgcc1" -- "a7xpg";
		"libgl1-mesa-glx" -- "a7xpg";
		"libgl1," -- "a7xpg";
		"libsdl-mixer1.2," -- "a7xpg";
		"libsdl1.2debian" -- "a7xpg";
	}
	subgraph "aa3d" { 
		label="aa3d"
		"libc6" -- "aa3d";
	}
	subgraph "libaac-tactics-coq" { 
		label="libaac-tactics-coq"
		"libaac-tactics-ocaml" -- "libaac-tactics-coq";
		"coq-8.6+4.02.3" -- "libaac-tactics-coq";
	}
	subgraph "libaac-tactics-ocaml" { 
		label="libaac-tactics-ocaml"
		"libcoq-ocaml-e6ju8," -- "libaac-tactics-ocaml";
		"ocaml-base-nox-4.02.3," -- "libaac-tactics-ocaml";
		"libc6" -- "libaac-tactics-ocaml";
	}
	subgraph "libaac-tactics-ocaml-dev" { 
		label="libaac-tactics-ocaml-dev"
		"camlp5-bx6a3," -- "libaac-tactics-ocaml-dev";
		"libaac-tactics-ocaml-q2b23," -- "libaac-tactics-ocaml-dev";
		"libcoq-ocaml-dev-e6ju8," -- "libaac-tactics-ocaml-dev";
		"ocaml-nox-4.02.3" -- "libaac-tactics-ocaml-dev";
	}
	subgraph "python-aafigure" { 
		label="python-aafigure"
		"python," -- "python-aafigure";
		"python:any" -- "python-aafigure";
		"python:any" -- "python-aafigure";
	}
	subgraph "libaa-bin" { 
		label="libaa-bin"
		"libaa1" -- "libaa-bin";
		"libc6" -- "libaa-bin";
		"libgpm2" -- "libaa-bin";
		"libncurses5" -- "libaa-bin";
		"libslang2" -- "libaa-bin";
		"libtinfo5" -- "libaa-bin";
		"libx11-6" -- "libaa-bin";
	}
	subgraph "libaa1" { 
		label="libaa1"
		"libc6" -- "libaa1";
		"libgpm2" -- "libaa1";
		"libncurses5" -- "libaa1";
		"libslang2" -- "libaa1";
		"libtinfo5" -- "libaa1";
		"libx11-6" -- "libaa1";
	}
	subgraph "libaa1-dbg" { 
		label="libaa1-dbg"
		"libaa1" -- "libaa1-dbg";
	}
	subgraph "libaa1-dev" { 
		label="libaa1-dev"
		"libaa1" -- "libaa1-dev";
		"libx11-dev," -- "libaa1-dev";
		"libslang2-dev," -- "libaa1-dev";
		"libncurses5-dev" -- "libaa1-dev";
	}
	subgraph "aaphoto" { 
		label="aaphoto"
		"libc6" -- "aaphoto";
		"libgomp1" -- "aaphoto";
		"libjpeg62-turbo" -- "aaphoto";
		"libpng16-16" -- "aaphoto";
	}
	subgraph "abacas" { 
		label="abacas"
		"mummer" -- "abacas";
	}
	subgraph "abcde" { 
		label="abcde"
		"cd-discid," -- "abcde";
		"wget," -- "abcde";
		"cdparanoia" -- "abcde";
		"icedax," -- "abcde";
		"vorbis-tools" -- "abcde";
		"lame" -- "abcde";
		"flac" -- "abcde";
		"speex" -- "abcde";
		"musepack-tools" -- "abcde";
		"opus-tools" -- "abcde";
	}
	subgraph "abcm2ps" { 
		label="abcm2ps"
		"libc6" -- "abcm2ps";
	}
	subgraph "abcmidi" { 
		label="abcmidi"
		"libc6" -- "abcmidi";
	}
	subgraph "abe" { 
		label="abe"
		"abe-data" -- "abe";
		"libc6" -- "abe";
		"libice6" -- "abe";
		"libsdl-mixer1.2," -- "abe";
		"libsdl1.2debian" -- "abe";
		"libsm6," -- "abe";
		"libx11-6," -- "abe";
		"libxext6," -- "abe";
		"libxi6," -- "abe";
		"libxmu6," -- "abe";
		"libxt6" -- "abe";
	}
	subgraph "abgate" { 
		label="abgate"
		"libatkmm-1.6-1v5" -- "abgate";
		"libc6" -- "abgate";
		"libgcc1" -- "abgate";
		"libglibmm-2.4-1v5" -- "abgate";
		"libgtk2.0-0" -- "abgate";
		"libgtkmm-2.4-1v5" -- "abgate";
		"libqtcore4" -- "abgate";
		"libqtgui4" -- "abgate";
		"libsigc++-2.0-0v5" -- "abgate";
		"libstdc++6" -- "abgate";
	}
	subgraph "abi-compliance-checker" { 
		label="abi-compliance-checker"
		"build-essential," -- "abi-compliance-checker";
		"perl:any" -- "abi-compliance-checker";
	}
	subgraph "dh-acc" { 
		label="dh-acc"
		"abi-compliance-checker" -- "dh-acc";
		"debhelper," -- "dh-acc";
		"perl" -- "dh-acc";
	}
	subgraph "abi-dumper" { 
		label="abi-dumper"
		"elfutils," -- "abi-dumper";
		"vtable-dumper" -- "abi-dumper";
		"perl:any" -- "abi-dumper";
	}
	subgraph "abi-monitor" { 
		label="abi-monitor"
		"build-essential," -- "abi-monitor";
		"cmake," -- "abi-monitor";
		"wget," -- "abi-monitor";
		"curl," -- "abi-monitor";
		"git," -- "abi-monitor";
		"perl:any" -- "abi-monitor";
	}
	subgraph "abi-tracker" { 
		label="abi-tracker"
		"abi-compliance-checker" -- "abi-tracker";
		"abi-dumper" -- "abi-tracker";
		"pkgdiff" -- "abi-tracker";
		"rfcdiff" -- "abi-tracker";
		"vtable-dumper" -- "abi-tracker";
		"perl:any" -- "abi-tracker";
	}
	subgraph "abicheck" { 
		label="abicheck"
		"perl" -- "abicheck";
	}
	subgraph "r-cran-abind" { 
		label="r-cran-abind"
		"r-base-core" -- "r-cran-abind";
		"r-api-3" -- "r-cran-abind";
	}
	subgraph "abinit" { 
		label="abinit"
		"libblas3" -- "abinit";
		"libblas.so.3," -- "abinit";
		"libc6" -- "abinit";
		"libgcc1" -- "abinit";
		"libgfortran3" -- "abinit";
		"liblapack3" -- "abinit";
		"liblapack.so.3," -- "abinit";
		"libquadmath0" -- "abinit";
	}
	subgraph "abiword" { 
		label="abiword"
		"libabiword-3.0" -- "abiword";
		"libc6" -- "abiword";
		"libdbus-1-3" -- "abiword";
		"libdbus-glib-1-2" -- "abiword";
		"libgcc1" -- "abiword";
		"libgcrypt20" -- "abiword";
		"libglib2.0-0" -- "abiword";
		"libgnutls30" -- "abiword";
		"libgoffice-0.10-10" -- "abiword";
		"libgsf-1-114" -- "abiword";
		"libgtk-3-0" -- "abiword";
		"libjpeg62-turbo" -- "abiword";
		"libloudmouth1-0" -- "abiword";
		"libots0" -- "abiword";
		"libpng16-16" -- "abiword";
		"librdf0" -- "abiword";
		"libreadline7" -- "abiword";
		"librevenge-0.0-0," -- "abiword";
		"libsoup2.4-1" -- "abiword";
		"libstdc++6" -- "abiword";
		"libtelepathy-glib0" -- "abiword";
		"libtidy5" -- "abiword";
		"libwmf0.2-7" -- "abiword";
		"libwpd-0.10-10," -- "abiword";
		"libwpg-0.3-3," -- "abiword";
		"libxml2" -- "abiword";
		"zlib1g" -- "abiword";
		"abiword-common" -- "abiword";
		"gsfonts" -- "abiword";
	}
	subgraph "abiword-plugin-grammar" { 
		label="abiword-plugin-grammar"
		"libabiword-3.0" -- "abiword-plugin-grammar";
		"libc6" -- "abiword-plugin-grammar";
		"libgcc1" -- "abiword-plugin-grammar";
		"libglib2.0-0" -- "abiword-plugin-grammar";
		"liblink-grammar5" -- "abiword-plugin-grammar";
		"libstdc++6" -- "abiword-plugin-grammar";
		"abiword" -- "abiword-plugin-grammar";
	}
	subgraph "gir1.2-abiword-3.0" { 
		label="gir1.2-abiword-3.0"
		"gir1.2-glib-2.0," -- "gir1.2-abiword-3.0";
		"gir1.2-gsf-1," -- "gir1.2-abiword-3.0";
		"gir1.2-gtk-3.0," -- "gir1.2-abiword-3.0";
		"libabiword-3.0" -- "gir1.2-abiword-3.0";
		"libgirepository-1.0-1" -- "gir1.2-abiword-3.0";
	}
	subgraph "libabiword-3.0" { 
		label="libabiword-3.0"
		"libatk1.0-0" -- "libabiword-3.0";
		"libc6" -- "libabiword-3.0";
		"libcairo-gobject2" -- "libabiword-3.0";
		"libcairo2" -- "libabiword-3.0";
		"libchamplain-0.12-0" -- "libabiword-3.0";
		"libchamplain-gtk-0.12-0" -- "libabiword-3.0";
		"libclutter-1.0-0" -- "libabiword-3.0";
		"libclutter-gtk-1.0-0" -- "libabiword-3.0";
		"libcogl-pango20" -- "libabiword-3.0";
		"libcogl-path20" -- "libabiword-3.0";
		"libcogl20" -- "libabiword-3.0";
		"libdrm2" -- "libabiword-3.0";
		"libebackend-1.2-10" -- "libabiword-3.0";
		"libebook-1.2-16" -- "libabiword-3.0";
		"libebook-contacts-1.2-2" -- "libabiword-3.0";
		"libecal-1.2-19" -- "libabiword-3.0";
		"libedata-book-1.2-25" -- "libabiword-3.0";
		"libedataserver-1.2-22" -- "libabiword-3.0";
		"libegl1-mesa" -- "libabiword-3.0";
		"libegl1-x11," -- "libabiword-3.0";
		"libenchant1c2a" -- "libabiword-3.0";
		"libexpat1" -- "libabiword-3.0";
		"libfontconfig1" -- "libabiword-3.0";
		"libfreetype6" -- "libabiword-3.0";
		"libfribidi0" -- "libabiword-3.0";
		"libgbm1" -- "libabiword-3.0";
		"libgcc1" -- "libabiword-3.0";
		"libgdk-pixbuf2.0-0" -- "libabiword-3.0";
		"libglib2.0-0" -- "libabiword-3.0";
		"libgoffice-0.10-10" -- "libabiword-3.0";
		"libgsf-1-114" -- "libabiword-3.0";
		"libgtk-3-0" -- "libabiword-3.0";
		"libical2" -- "libabiword-3.0";
		"libjpeg62-turbo" -- "libabiword-3.0";
		"libjson-glib-1.0-0" -- "libabiword-3.0";
		"libpango-1.0-0" -- "libabiword-3.0";
		"libpangocairo-1.0-0" -- "libabiword-3.0";
		"libpng16-16" -- "libabiword-3.0";
		"libraptor2-0" -- "libabiword-3.0";
		"librasqal3" -- "libabiword-3.0";
		"librdf0" -- "libabiword-3.0";
		"librsvg2-2" -- "libabiword-3.0";
		"libsecret-1-0" -- "libabiword-3.0";
		"libsoup2.4-1" -- "libabiword-3.0";
		"libstdc++6" -- "libabiword-3.0";
		"libwayland-client0" -- "libabiword-3.0";
		"libwayland-cursor0" -- "libabiword-3.0";
		"libwayland-egl1-mesa" -- "libabiword-3.0";
		"libwayland-egl1," -- "libabiword-3.0";
		"libwayland-server0" -- "libabiword-3.0";
		"libwmf0.2-7" -- "libabiword-3.0";
		"libwv-1.2-4" -- "libabiword-3.0";
		"libx11-6," -- "libabiword-3.0";
		"libxcomposite1" -- "libabiword-3.0";
		"libxdamage1" -- "libabiword-3.0";
		"libxext6," -- "libabiword-3.0";
		"libxfixes3," -- "libabiword-3.0";
		"libxi6," -- "libabiword-3.0";
		"libxkbcommon0" -- "libabiword-3.0";
		"libxml2" -- "libabiword-3.0";
		"libxrandr2," -- "libabiword-3.0";
		"libxslt1.1" -- "libabiword-3.0";
		"zlib1g" -- "libabiword-3.0";
	}
	subgraph "libabiword-3.0-dev" { 
		label="libabiword-3.0-dev"
		"libabiword-3.0" -- "libabiword-3.0-dev";
		"libcairo-dev" -- "libabiword-3.0-dev";
		"libcairo2-dev," -- "libabiword-3.0-dev";
		"libebook1.2-dev," -- "libabiword-3.0-dev";
		"libenchant-dev," -- "libabiword-3.0-dev";
		"libecal1.2-dev," -- "libabiword-3.0-dev";
		"libfribidi-dev," -- "libabiword-3.0-dev";
		"libglib2.0-dev," -- "libabiword-3.0-dev";
		"libgoffice-0.10-dev," -- "libabiword-3.0-dev";
		"libgsf-1-dev," -- "libabiword-3.0-dev";
		"libgtk-3-dev," -- "libabiword-3.0-dev";
		"libical-dev" -- "libabiword-3.0-dev";
		"libpango1.0-dev," -- "libabiword-3.0-dev";
		"librasqal3-dev," -- "libabiword-3.0-dev";
		"librdf0-dev," -- "libabiword-3.0-dev";
		"librsvg2-dev," -- "libabiword-3.0-dev";
		"libwv-dev," -- "libabiword-3.0-dev";
		"libx11-dev," -- "libabiword-3.0-dev";
		"libxslt-dev" -- "libabiword-3.0-dev";
		"libxslt1-dev" -- "libabiword-3.0-dev";
	}
	subgraph "ableton-link-dev" { 
		label="ableton-link-dev"
		"libasio-dev" -- "ableton-link-dev";
	}
	subgraph "ableton-link-utils" { 
		label="ableton-link-utils"
		"libc6" -- "ableton-link-utils";
		"libgcc1" -- "ableton-link-utils";
		"libjack-jackd2-0" -- "ableton-link-utils";
		"libjack-0.116," -- "ableton-link-utils";
		"libstdc++6" -- "ableton-link-utils";
	}
	subgraph "ableton-link-utils-gui" { 
		label="ableton-link-utils-gui"
		"libc6" -- "ableton-link-utils-gui";
		"libgcc1" -- "ableton-link-utils-gui";
		"libjack-jackd2-0" -- "ableton-link-utils-gui";
		"libjack-0.116," -- "ableton-link-utils-gui";
		"libqt5core5a" -- "ableton-link-utils-gui";
		"libqt5gui5" -- "ableton-link-utils-gui";
		"libqt5network5" -- "ableton-link-utils-gui";
		"libqt5qml5" -- "ableton-link-utils-gui";
		"libqt5quick5" -- "ableton-link-utils-gui";
		"libstdc++6" -- "ableton-link-utils-gui";
		"qml-module-qtquick-controls" -- "ableton-link-utils-gui";
	}
	subgraph "abntex" { 
		label="abntex"
		"dpkg" -- "abntex";
		"tex-common" -- "abntex";
		"texlive-latex-recommended," -- "abntex";
		"texlive-lang-portuguese," -- "abntex";
		"texlive-fonts-recommended" -- "abntex";
	}
	subgraph "abook" { 
		label="abook"
		"libc6" -- "abook";
		"libncursesw5" -- "abook";
		"libreadline7" -- "abook";
		"libtinfo5" -- "abook";
		"debconf" -- "abook";
		"debconf-2.0" -- "abook";
	}
	subgraph "abootimg" { 
		label="abootimg"
		"libblkid1" -- "abootimg";
		"libc6" -- "abootimg";
	}
	subgraph "abr2gbr" { 
		label="abr2gbr"
		"libc6" -- "abr2gbr";
		"libglib2.0-0" -- "abr2gbr";
	}
	subgraph "python-abstract-rendering" { 
		label="python-abstract-rendering"
		"python-numpy" -- "python-abstract-rendering";
		"python-numpy-abi9," -- "python-abstract-rendering";
		"python" -- "python-abstract-rendering";
		"python" -- "python-abstract-rendering";
		"python:any" -- "python-abstract-rendering";
		"libc6" -- "python-abstract-rendering";
		"libgcc1" -- "python-abstract-rendering";
		"libstdc++6" -- "python-abstract-rendering";
	}
	subgraph "python3-abstract-rendering" { 
		label="python3-abstract-rendering"
		"python3-numpy" -- "python3-abstract-rendering";
		"python3-numpy-abi9," -- "python3-abstract-rendering";
		"python3" -- "python3-abstract-rendering";
		"python3" -- "python3-abstract-rendering";
		"libc6" -- "python3-abstract-rendering";
		"libgcc1" -- "python3-abstract-rendering";
		"libstdc++6" -- "python3-abstract-rendering";
	}
	subgraph "abx" { 
		label="abx"
		"libasound2" -- "abx";
		"libatk1.0-0" -- "abx";
		"libc6" -- "abx";
		"libcairo2" -- "abx";
		"libfontconfig1" -- "abx";
		"libfreetype6" -- "abx";
		"libgdk-pixbuf2.0-0" -- "abx";
		"libglib2.0-0" -- "abx";
		"libgtk2.0-0" -- "abx";
		"libpango-1.0-0" -- "abx";
		"libpangocairo-1.0-0" -- "abx";
		"libpangoft2-1.0-0" -- "abx";
		"libportaudio2" -- "abx";
		"libsndfile1" -- "abx";
	}
	subgraph "abyss" { 
		label="abyss"
		"make," -- "abyss";
		"libc6" -- "abyss";
		"libgcc1" -- "abyss";
		"libgomp1" -- "abyss";
		"libopenmpi2," -- "abyss";
		"libsqlite3-0" -- "abyss";
		"libstdc++6" -- "abyss";
		"perl:any" -- "abyss";
	}
	subgraph "accerciser" { 
		label="accerciser"
		"dconf-gsettings-backend" -- "accerciser";
		"gsettings-backend," -- "accerciser";
		"python3:any" -- "accerciser";
		"ipython3" -- "accerciser";
		"gir1.2-atk-1.0," -- "accerciser";
		"gir1.2-gdkpixbuf-2.0," -- "accerciser";
		"gir1.2-glib-2.0," -- "accerciser";
		"gir1.2-gtk-3.0," -- "accerciser";
		"gir1.2-pango-1.0," -- "accerciser";
		"gir1.2-rsvg-2.0," -- "accerciser";
		"gir1.2-wnck-3.0," -- "accerciser";
		"python3-cairo," -- "accerciser";
		"python3-xlib," -- "accerciser";
		"python3-pyatspi" -- "accerciser";
	}
	subgraph "libaccess-modifier-checker-java" { 
		label="libaccess-modifier-checker-java"
		"libannotation-indexer-java," -- "libaccess-modifier-checker-java";
		"libasm-java" -- "libaccess-modifier-checker-java";
		"libmaven2-core-java" -- "libaccess-modifier-checker-java";
	}
	subgraph "libaccess-modifier-checker-java-doc" { 
		label="libaccess-modifier-checker-java-doc"
		"default-jdk-doc," -- "libaccess-modifier-checker-java-doc";
		"libannotation-indexer-java-doc," -- "libaccess-modifier-checker-java-doc";
		"libmaven2-core-java-doc" -- "libaccess-modifier-checker-java-doc";
	}
	subgraph "libaccessodf-java" { 
		label="libaccessodf-java"
		"libcommons-collections3-java," -- "libaccessodf-java";
		"libreoffice-java-common," -- "libaccessodf-java";
		"libreoffice-writer" -- "libaccessodf-java";
	}
	subgraph "accountsservice" { 
		label="accountsservice"
		"dbus," -- "accountsservice";
		"libaccountsservice0" -- "accountsservice";
		"init-system-helpers" -- "accountsservice";
		"libc6" -- "accountsservice";
		"libglib2.0-0" -- "accountsservice";
		"libpolkit-gobject-1-0" -- "accountsservice";
	}
	subgraph "gir1.2-accountsservice-1.0" { 
		label="gir1.2-accountsservice-1.0"
		"gir1.2-glib-2.0," -- "gir1.2-accountsservice-1.0";
		"libaccountsservice0" -- "gir1.2-accountsservice-1.0";
	}
	subgraph "libaccountsservice-dev" { 
		label="libaccountsservice-dev"
		"gir1.2-accountsservice-1.0" -- "libaccountsservice-dev";
		"libaccountsservice0" -- "libaccountsservice-dev";
		"libglib2.0-dev" -- "libaccountsservice-dev";
		"libpolkit-gobject-1-dev" -- "libaccountsservice-dev";
	}
	subgraph "libaccountsservice0" { 
		label="libaccountsservice0"
		"libc6" -- "libaccountsservice0";
		"libglib2.0-0" -- "libaccountsservice0";
		"libsystemd0" -- "libaccountsservice0";
	}
	subgraph "acct" { 
		label="acct"
		"libc6" -- "acct";
		"dpkg" -- "acct";
		"install-info," -- "acct";
		"lsb-base" -- "acct";
	}
	subgraph "ace-gperf" { 
		label="ace-gperf"
		"libace-6.3.3," -- "ace-gperf";
		"libc6" -- "ace-gperf";
		"libgcc1" -- "ace-gperf";
		"libstdc++6" -- "ace-gperf";
	}
	subgraph "ace-netsvcs" { 
		label="ace-netsvcs"
		"libace-6.3.3," -- "ace-netsvcs";
		"libc6" -- "ace-netsvcs";
		"libgcc1" -- "ace-netsvcs";
		"libnetsvcs-6.3.3," -- "ace-netsvcs";
		"libstdc++6" -- "ace-netsvcs";
	}
	subgraph "gperf-ace" { 
		label="gperf-ace"
		"ace-gperf" -- "gperf-ace";
	}
	subgraph "libace-6.3.3" { 
		label="libace-6.3.3"
		"libc6" -- "libace-6.3.3";
		"libgcc1" -- "libace-6.3.3";
		"libstdc++6" -- "libace-6.3.3";
	}
	subgraph "libace-dev" { 
		label="libace-dev"
		"libace-6.3.3" -- "libace-dev";
	}
	subgraph "libace-flreactor-6.3.3" { 
		label="libace-flreactor-6.3.3"
		"libace-6.3.3," -- "libace-flreactor-6.3.3";
		"libc6" -- "libace-flreactor-6.3.3";
		"libfltk1.1" -- "libace-flreactor-6.3.3";
		"libgcc1" -- "libace-flreactor-6.3.3";
		"libgl1-mesa-glx" -- "libace-flreactor-6.3.3";
		"libgl1," -- "libace-flreactor-6.3.3";
		"libstdc++6" -- "libace-flreactor-6.3.3";
		"libx11-6" -- "libace-flreactor-6.3.3";
	}
	subgraph "libace-flreactor-dev" { 
		label="libace-flreactor-dev"
		"libace-flreactor-6.3.3" -- "libace-flreactor-dev";
		"libace-dev" -- "libace-flreactor-dev";
		"libfltk1.1-dev" -- "libace-flreactor-dev";
	}
	subgraph "libace-foxreactor-6.3.3" { 
		label="libace-foxreactor-6.3.3"
		"libace-6.3.3," -- "libace-foxreactor-6.3.3";
		"libc6" -- "libace-foxreactor-6.3.3";
		"libfox-1.6-0," -- "libace-foxreactor-6.3.3";
		"libgcc1" -- "libace-foxreactor-6.3.3";
		"libstdc++6" -- "libace-foxreactor-6.3.3";
	}
	subgraph "libace-foxreactor-dev" { 
		label="libace-foxreactor-dev"
		"libace-foxreactor-6.3.3" -- "libace-foxreactor-dev";
		"libace-dev" -- "libace-foxreactor-dev";
		"libfox-1.6-dev" -- "libace-foxreactor-dev";
	}
	subgraph "libace-htbp-6.3.3" { 
		label="libace-htbp-6.3.3"
		"libace-6.3.3," -- "libace-htbp-6.3.3";
		"libc6" -- "libace-htbp-6.3.3";
		"libgcc1" -- "libace-htbp-6.3.3";
		"libstdc++6" -- "libace-htbp-6.3.3";
	}
	subgraph "libace-htbp-dev" { 
		label="libace-htbp-dev"
		"libace-htbp-6.3.3" -- "libace-htbp-dev";
		"libace-dev" -- "libace-htbp-dev";
	}
	subgraph "libace-inet-6.3.3" { 
		label="libace-inet-6.3.3"
		"libace-6.3.3," -- "libace-inet-6.3.3";
		"libc6" -- "libace-inet-6.3.3";
		"libgcc1" -- "libace-inet-6.3.3";
		"libstdc++6" -- "libace-inet-6.3.3";
	}
	subgraph "libace-inet-dev" { 
		label="libace-inet-dev"
		"libace-inet-6.3.3" -- "libace-inet-dev";
		"libace-dev" -- "libace-inet-dev";
	}
	subgraph "libace-inet-ssl-6.3.3" { 
		label="libace-inet-ssl-6.3.3"
		"libace-inet-6.3.3," -- "libace-inet-ssl-6.3.3";
		"libace-ssl-6.3.3," -- "libace-inet-ssl-6.3.3";
		"libace-6.3.3," -- "libace-inet-ssl-6.3.3";
		"libc6" -- "libace-inet-ssl-6.3.3";
		"libgcc1" -- "libace-inet-ssl-6.3.3";
		"libssl1.0.2" -- "libace-inet-ssl-6.3.3";
		"libstdc++6" -- "libace-inet-ssl-6.3.3";
	}
	subgraph "libace-inet-ssl-dev" { 
		label="libace-inet-ssl-dev"
		"libace-inet-ssl-6.3.3" -- "libace-inet-ssl-dev";
		"libace-inet-dev" -- "libace-inet-ssl-dev";
		"libace-ssl-dev" -- "libace-inet-ssl-dev";
	}
	subgraph "libace-qtreactor-6.3.3" { 
		label="libace-qtreactor-6.3.3"
		"libace-6.3.3," -- "libace-qtreactor-6.3.3";
		"libc6" -- "libace-qtreactor-6.3.3";
		"libgcc1" -- "libace-qtreactor-6.3.3";
		"libqtcore4" -- "libace-qtreactor-6.3.3";
		"libqtgui4" -- "libace-qtreactor-6.3.3";
		"libstdc++6" -- "libace-qtreactor-6.3.3";
	}
	subgraph "libace-qtreactor-dev" { 
		label="libace-qtreactor-dev"
		"libace-qtreactor-6.3.3" -- "libace-qtreactor-dev";
		"libace-dev" -- "libace-qtreactor-dev";
		"libqt4-dev" -- "libace-qtreactor-dev";
	}
	subgraph "libace-rmcast-6.3.3" { 
		label="libace-rmcast-6.3.3"
		"libace-6.3.3," -- "libace-rmcast-6.3.3";
		"libc6" -- "libace-rmcast-6.3.3";
		"libgcc1" -- "libace-rmcast-6.3.3";
		"libstdc++6" -- "libace-rmcast-6.3.3";
	}
	subgraph "libace-rmcast-dev" { 
		label="libace-rmcast-dev"
		"libace-rmcast-6.3.3" -- "libace-rmcast-dev";
		"libace-dev" -- "libace-rmcast-dev";
	}
	subgraph "libace-ssl-6.3.3" { 
		label="libace-ssl-6.3.3"
		"libace-6.3.3," -- "libace-ssl-6.3.3";
		"libc6" -- "libace-ssl-6.3.3";
		"libgcc1" -- "libace-ssl-6.3.3";
		"libssl1.0.2" -- "libace-ssl-6.3.3";
		"libstdc++6" -- "libace-ssl-6.3.3";
	}
	subgraph "libace-ssl-dev" { 
		label="libace-ssl-dev"
		"libace-ssl-6.3.3" -- "libace-ssl-dev";
		"libace-dev" -- "libace-ssl-dev";
		"libssl1.0-dev" -- "libace-ssl-dev";
		"libssl-dev" -- "libace-ssl-dev";
	}
	subgraph "libace-tkreactor-6.3.3" { 
		label="libace-tkreactor-6.3.3"
		"libace-6.3.3," -- "libace-tkreactor-6.3.3";
		"libc6" -- "libace-tkreactor-6.3.3";
		"libgcc1" -- "libace-tkreactor-6.3.3";
		"libstdc++6" -- "libace-tkreactor-6.3.3";
		"libtcl8.6" -- "libace-tkreactor-6.3.3";
		"libtk8.6" -- "libace-tkreactor-6.3.3";
	}
	subgraph "libace-tkreactor-dev" { 
		label="libace-tkreactor-dev"
		"libace-tkreactor-6.3.3" -- "libace-tkreactor-dev";
		"libace-dev" -- "libace-tkreactor-dev";
		"tk-dev" -- "libace-tkreactor-dev";
	}
	subgraph "libace-tmcast-6.3.3" { 
		label="libace-tmcast-6.3.3"
		"libace-6.3.3," -- "libace-tmcast-6.3.3";
		"libc6" -- "libace-tmcast-6.3.3";
		"libgcc1" -- "libace-tmcast-6.3.3";
		"libstdc++6" -- "libace-tmcast-6.3.3";
	}
	subgraph "libace-tmcast-dev" { 
		label="libace-tmcast-dev"
		"libace-tmcast-6.3.3" -- "libace-tmcast-dev";
		"libace-dev" -- "libace-tmcast-dev";
	}
	subgraph "libace-xml-utils-6.3.3" { 
		label="libace-xml-utils-6.3.3"
		"libace-6.3.3," -- "libace-xml-utils-6.3.3";
		"libc6" -- "libace-xml-utils-6.3.3";
		"libgcc1" -- "libace-xml-utils-6.3.3";
		"libstdc++6" -- "libace-xml-utils-6.3.3";
		"libxerces-c3.1" -- "libace-xml-utils-6.3.3";
	}
	subgraph "libace-xml-utils-dev" { 
		label="libace-xml-utils-dev"
		"libace-xml-utils-6.3.3" -- "libace-xml-utils-dev";
		"libace-dev" -- "libace-xml-utils-dev";
		"libxerces-c-dev" -- "libace-xml-utils-dev";
	}
	subgraph "libace-xtreactor-6.3.3" { 
		label="libace-xtreactor-6.3.3"
		"libace-6.3.3," -- "libace-xtreactor-6.3.3";
		"libc6" -- "libace-xtreactor-6.3.3";
		"libgcc1" -- "libace-xtreactor-6.3.3";
		"libstdc++6" -- "libace-xtreactor-6.3.3";
		"libx11-6," -- "libace-xtreactor-6.3.3";
		"libxt6" -- "libace-xtreactor-6.3.3";
	}
	subgraph "libace-xtreactor-dev" { 
		label="libace-xtreactor-dev"
		"libace-xtreactor-6.3.3" -- "libace-xtreactor-dev";
		"libace-dev" -- "libace-xtreactor-dev";
		"libxt-dev" -- "libace-xtreactor-dev";
	}
	subgraph "libacexml-6.3.3" { 
		label="libacexml-6.3.3"
		"libace-6.3.3," -- "libacexml-6.3.3";
		"libc6" -- "libacexml-6.3.3";
		"libgcc1" -- "libacexml-6.3.3";
		"libstdc++6" -- "libacexml-6.3.3";
		"libzzip-0-13" -- "libacexml-6.3.3";
		"zlib1g" -- "libacexml-6.3.3";
	}
	subgraph "libacexml-dev" { 
		label="libacexml-dev"
		"libacexml-6.3.3" -- "libacexml-dev";
		"libace-dev" -- "libacexml-dev";
	}
	subgraph "libkokyu-6.3.3" { 
		label="libkokyu-6.3.3"
		"libace-6.3.3," -- "libkokyu-6.3.3";
		"libc6" -- "libkokyu-6.3.3";
		"libgcc1" -- "libkokyu-6.3.3";
		"libstdc++6" -- "libkokyu-6.3.3";
	}
	subgraph "libkokyu-dev" { 
		label="libkokyu-dev"
		"libkokyu-6.3.3" -- "libkokyu-dev";
		"libace-dev" -- "libkokyu-dev";
	}
	subgraph "libnetsvcs-6.3.3" { 
		label="libnetsvcs-6.3.3"
		"libace-6.3.3," -- "libnetsvcs-6.3.3";
		"libc6" -- "libnetsvcs-6.3.3";
		"libgcc1" -- "libnetsvcs-6.3.3";
		"libstdc++6" -- "libnetsvcs-6.3.3";
	}
	subgraph "libnetsvcs-dev" { 
		label="libnetsvcs-dev"
		"libnetsvcs-6.3.3" -- "libnetsvcs-dev";
		"libace-dev" -- "libnetsvcs-dev";
	}
	subgraph "mpc-ace" { 
		label="mpc-ace"
		"perl:any" -- "mpc-ace";
	}
	subgraph "elpa-ace-link" { 
		label="elpa-ace-link"
		"elpa-avy" -- "elpa-ace-link";
		"emacsen-common," -- "elpa-ace-link";
		"emacs" -- "elpa-ace-link";
	}
	subgraph "ace-of-penguins" { 
		label="ace-of-penguins"
		"libc6" -- "ace-of-penguins";
		"libpng16-16" -- "ace-of-penguins";
		"libx11-6" -- "ace-of-penguins";
	}
	subgraph "elpa-ace-window" { 
		label="elpa-ace-window"
		"elpa-avy" -- "elpa-ace-window";
		"emacsen-common," -- "elpa-ace-window";
		"emacs" -- "elpa-ace-window";
	}
	subgraph "acedb-other" { 
		label="acedb-other"
		"libc6" -- "acedb-other";
	}
	subgraph "acedb-other-belvu" { 
		label="acedb-other-belvu"
		"libatk1.0-0" -- "acedb-other-belvu";
		"libc6" -- "acedb-other-belvu";
		"libcairo2" -- "acedb-other-belvu";
		"libfontconfig1" -- "acedb-other-belvu";
		"libfreetype6" -- "acedb-other-belvu";
		"libgdk-pixbuf2.0-0" -- "acedb-other-belvu";
		"libglib2.0-0" -- "acedb-other-belvu";
		"libgtk2.0-0" -- "acedb-other-belvu";
		"libpango-1.0-0" -- "acedb-other-belvu";
		"libpangocairo-1.0-0" -- "acedb-other-belvu";
		"libpangoft2-1.0-0" -- "acedb-other-belvu";
		"libreadline7" -- "acedb-other-belvu";
		"libx11-6" -- "acedb-other-belvu";
	}
	subgraph "acedb-other-dotter" { 
		label="acedb-other-dotter"
		"libatk1.0-0" -- "acedb-other-dotter";
		"libc6" -- "acedb-other-dotter";
		"libcairo2" -- "acedb-other-dotter";
		"libfontconfig1" -- "acedb-other-dotter";
		"libfreetype6" -- "acedb-other-dotter";
		"libgdk-pixbuf2.0-0" -- "acedb-other-dotter";
		"libglib2.0-0" -- "acedb-other-dotter";
		"libgtk2.0-0" -- "acedb-other-dotter";
		"libpango-1.0-0" -- "acedb-other-dotter";
		"libpangocairo-1.0-0" -- "acedb-other-dotter";
		"libpangoft2-1.0-0" -- "acedb-other-dotter";
		"libreadline7" -- "acedb-other-dotter";
		"libx11-6" -- "acedb-other-dotter";
	}
	subgraph "r-cran-acepack" { 
		label="r-cran-acepack"
		"libc6" -- "r-cran-acepack";
		"libgfortran3" -- "r-cran-acepack";
		"libquadmath0" -- "r-cran-acepack";
		"r-base-core" -- "r-cran-acepack";
		"r-api-3" -- "r-cran-acepack";
	}
	subgraph "aces3" { 
		label="aces3"
		"libblas3" -- "aces3";
		"libblas.so.3," -- "aces3";
		"libc6" -- "aces3";
		"libgcc1" -- "aces3";
		"libgfortran3" -- "aces3";
		"liblapack3" -- "aces3";
		"liblapack.so.3," -- "aces3";
		"libopenmpi2," -- "aces3";
		"libquadmath0" -- "aces3";
		"libstdc++6" -- "aces3";
		"aces3-data" -- "aces3";
	}
	subgraph "acetoneiso" { 
		label="acetoneiso"
		"libc6" -- "acetoneiso";
		"libgcc1" -- "acetoneiso";
		"libqt4-dbus" -- "acetoneiso";
		"libqtcore4" -- "acetoneiso";
		"libqtgui4" -- "acetoneiso";
		"libqtwebkit4" -- "acetoneiso";
		"libstdc++6" -- "acetoneiso";
		"fuseiso," -- "acetoneiso";
		"fuse," -- "acetoneiso";
		"genisoimage," -- "acetoneiso";
		"cdrdao," -- "acetoneiso";
		"p7zip-full," -- "acetoneiso";
		"gnupg-agent," -- "acetoneiso";
		"gnupg2," -- "acetoneiso";
		"pinentry-qt4" -- "acetoneiso";
	}
	subgraph "acfax" { 
		label="acfax"
		"libc6" -- "acfax";
		"libx11-6," -- "acfax";
		"libxaw7," -- "acfax";
		"libxt6," -- "acfax";
		"osspd" -- "acfax";
	}
	subgraph "acheck" { 
		label="acheck"
		"perl," -- "acheck";
		"acheck-rules," -- "acheck";
		"libconfig-general-perl," -- "acheck";
		"libterm-size-perl" -- "acheck";
	}
	subgraph "achilles" { 
		label="achilles"
		"libc6" -- "achilles";
		"libgcc1" -- "achilles";
		"libgl1-mesa-glx" -- "achilles";
		"libgl1," -- "achilles";
		"libglu1-mesa" -- "achilles";
		"libglu1," -- "achilles";
		"libpng16-16" -- "achilles";
		"libsdl1.2debian" -- "achilles";
		"libstdc++6" -- "achilles";
		"libx11-6," -- "achilles";
		"libxxf86vm1," -- "achilles";
		"zlib1g" -- "achilles";
	}
	subgraph "ack" { 
		label="ack"
		"libfile-next-perl" -- "ack";
		"perl" -- "ack";
	}
	subgraph "ack-grep" { 
		label="ack-grep"
		"ack" -- "ack-grep";
	}
	subgraph "acl" { 
		label="acl"
		"libacl1" -- "acl";
		"libattr1" -- "acl";
		"libc6" -- "acl";
	}
	subgraph "libacl1" { 
		label="libacl1"
		"libattr1" -- "libacl1";
		"libc6" -- "libacl1";
	}
	subgraph "libacl1-dev" { 
		label="libacl1-dev"
		"libc6-dev" -- "libacl1-dev";
		"libc-dev," -- "libacl1-dev";
		"libacl1" -- "libacl1-dev";
		"libattr1-dev" -- "libacl1-dev";
	}
	subgraph "acl2" { 
		label="acl2"
		"libc6" -- "acl2";
		"libgmp10," -- "acl2";
		"libreadline7" -- "acl2";
		"libx11-6" -- "acl2";
	}
	subgraph "acl2-books" { 
		label="acl2-books"
		"acl2" -- "acl2-books";
		"acl2-books-certs" -- "acl2-books";
		"acl2-books-source" -- "acl2-books";
	}
	subgraph "acl2-books-certs" { 
		label="acl2-books-certs"
		"acl2" -- "acl2-books-certs";
		"tex-common" -- "acl2-books-certs";
	}
	subgraph "acl2-books-source" { 
		label="acl2-books-source"
		"acl2" -- "acl2-books-source";
		"tex-common" -- "acl2-books-source";
	}
	subgraph "acl2-doc" { 
		label="acl2-doc"
		"tex-common" -- "acl2-doc";
		"dpkg" -- "acl2-doc";
		"install-info" -- "acl2-doc";
	}
	subgraph "acl2-emacs" { 
		label="acl2-emacs"
		"acl2" -- "acl2-emacs";
		"emacs24" -- "acl2-emacs";
		"emacsen," -- "acl2-emacs";
		"tex-common" -- "acl2-emacs";
	}
	subgraph "acl2-infix" { 
		label="acl2-infix"
		"acl2" -- "acl2-infix";
		"texlive-latex-recommended" -- "acl2-infix";
	}
	subgraph "acl2-infix-source" { 
		label="acl2-infix-source"
		"tex-common" -- "acl2-infix-source";
	}
	subgraph "acl2-source" { 
		label="acl2-source"
		"tex-common" -- "acl2-source";
	}
	subgraph "aclock.app" { 
		label="aclock.app"
		"gnustep-back0.25," -- "aclock.app";
		"gnustep-gui-runtime," -- "aclock.app";
		"libc6" -- "aclock.app";
		"libgnustep-base1.24" -- "aclock.app";
		"libgnustep-gui0.25," -- "aclock.app";
		"libobjc4" -- "aclock.app";
		"gnustep-fslayout-fhs" -- "aclock.app";
	}
	subgraph "acm" { 
		label="acm"
		"libaudio2," -- "acm";
		"libc6" -- "acm";
		"libx11-6," -- "acm";
		"libxext6" -- "acm";
	}
	subgraph "acme-tiny" { 
		label="acme-tiny"
		"openssl" -- "acme-tiny";
		"python3-pkg-resources," -- "acme-tiny";
		"python3:any" -- "acme-tiny";
	}
	subgraph "acmetool" { 
		label="acmetool"
		"init-system-helpers" -- "acmetool";
		"libc6" -- "acmetool";
		"libcap2" -- "acmetool";
	}
	subgraph "aconnectgui" { 
		label="aconnectgui"
		"libasound2" -- "aconnectgui";
		"libc6" -- "aconnectgui";
		"libfltk1.1" -- "aconnectgui";
		"libgcc1" -- "aconnectgui";
		"libstdc++6" -- "aconnectgui";
	}
	subgraph "node-acorn" { 
		label="node-acorn"
		"nodejs" -- "node-acorn";
	}
	subgraph "acorn-fdisk" { 
		label="acorn-fdisk"
		"libc6" -- "acorn-fdisk";
	}
	subgraph "acoustid-fingerprinter" { 
		label="acoustid-fingerprinter"
		"libavcodec57" -- "acoustid-fingerprinter";
		"libavcodec-extra57" -- "acoustid-fingerprinter";
		"libavformat57" -- "acoustid-fingerprinter";
		"libavutil55" -- "acoustid-fingerprinter";
		"libc6" -- "acoustid-fingerprinter";
		"libchromaprint1" -- "acoustid-fingerprinter";
		"libgcc1" -- "acoustid-fingerprinter";
		"libqt4-network" -- "acoustid-fingerprinter";
		"libqtcore4" -- "acoustid-fingerprinter";
		"libqtgui4" -- "acoustid-fingerprinter";
		"libstdc++6" -- "acoustid-fingerprinter";
		"libtag1v5" -- "acoustid-fingerprinter";
	}
	subgraph "acpi" { 
		label="acpi"
		"libc6" -- "acpi";
	}
	subgraph "acpi-call-dkms" { 
		label="acpi-call-dkms"
		"dkms" -- "acpi-call-dkms";
	}
	subgraph "acpi-fakekey" { 
		label="acpi-fakekey"
		"libc6" -- "acpi-fakekey";
		"libsystemd0," -- "acpi-fakekey";
		"init-system-helpers" -- "acpi-fakekey";
	}
	subgraph "acpi-support" { 
		label="acpi-support"
		"acpi-support-base" -- "acpi-support";
		"x11-xserver-utils," -- "acpi-support";
		"acpid" -- "acpi-support";
		"lsb-base" -- "acpi-support";
		"pm-utils" -- "acpi-support";
	}
	subgraph "acpi-support-base" { 
		label="acpi-support-base"
		"acpid" -- "acpi-support-base";
	}
	subgraph "acpica-tools" { 
		label="acpica-tools"
		"libc6" -- "acpica-tools";
	}
	subgraph "acpid" { 
		label="acpid"
		"libc6" -- "acpid";
		"init-system-helpers" -- "acpid";
		"lsb-base" -- "acpid";
		"kmod" -- "acpid";
	}
	subgraph "kacpimon" { 
		label="kacpimon"
		"libc6" -- "kacpimon";
		"init-system-helpers" -- "kacpimon";
	}
	subgraph "acpitail" { 
		label="acpitail"
		"libacpi0," -- "acpitail";
		"libc6" -- "acpitail";
	}
	subgraph "acpitool" { 
		label="acpitool"
		"libc6" -- "acpitool";
		"libgcc1" -- "acpitool";
		"libstdc++6" -- "acpitool";
	}
	subgraph "acpitool-dbg" { 
		label="acpitool-dbg"
		"acpitool" -- "acpitool-dbg";
	}
	subgraph "libacsccid1" { 
		label="libacsccid1"
		"libc6" -- "libacsccid1";
		"libusb-1.0-0" -- "libacsccid1";
	}
	subgraph "python-actdiag" { 
		label="python-actdiag"
		"python" -- "python-actdiag";
		"python" -- "python-actdiag";
		"python:any" -- "python-actdiag";
		"python-pkg-resources," -- "python-actdiag";
		"python-blockdiag" -- "python-actdiag";
	}
	subgraph "python3-actdiag" { 
		label="python3-actdiag"
		"python3-blockdiag" -- "python3-actdiag";
		"python3-pkg-resources," -- "python3-actdiag";
		"python3:any" -- "python3-actdiag";
	}
	subgraph "actiona" { 
		label="actiona"
		"libc6" -- "actiona";
		"libgcc1" -- "actiona";
		"libgdk-pixbuf2.0-0" -- "actiona";
		"libgl1-mesa-glx" -- "actiona";
		"libgl1," -- "actiona";
		"libglib2.0-0" -- "actiona";
		"libnotify4" -- "actiona";
		"libopencv-calib3d2.4v5," -- "actiona";
		"libopencv-contrib2.4v5," -- "actiona";
		"libopencv-core2.4v5," -- "actiona";
		"libopencv-features2d2.4v5," -- "actiona";
		"libopencv-flann2.4v5," -- "actiona";
		"libopencv-gpu2.4v5," -- "actiona";
		"libopencv-highgui2.4-deb0," -- "actiona";
		"libopencv-imgproc2.4v5," -- "actiona";
		"libopencv-legacy2.4v5," -- "actiona";
		"libopencv-ml2.4v5," -- "actiona";
		"libopencv-objdetect2.4v5," -- "actiona";
		"libopencv-ocl2.4v5," -- "actiona";
		"libopencv-photo2.4v5," -- "actiona";
		"libopencv-stitching2.4v5," -- "actiona";
		"libopencv-superres2.4v5," -- "actiona";
		"libopencv-ts2.4v5," -- "actiona";
		"libopencv-video2.4v5," -- "actiona";
		"libopencv-videostab2.4v5," -- "actiona";
		"libqt5core5a" -- "actiona";
		"libqt5dbus5" -- "actiona";
		"libqt5gui5" -- "actiona";
		"libqt5multimedia5" -- "actiona";
		"libqt5multimediawidgets5" -- "actiona";
		"libqt5network5" -- "actiona";
		"libqt5script5" -- "actiona";
		"libqt5scripttools5" -- "actiona";
		"libqt5sql5" -- "actiona";
		"libqt5widgets5" -- "actiona";
		"libqt5x11extras5" -- "actiona";
		"libqt5xml5" -- "actiona";
		"libqt5xmlpatterns5" -- "actiona";
		"libstdc++6" -- "actiona";
		"libx11-6," -- "actiona";
		"libxtst6" -- "actiona";
	}
	subgraph "actionaz" { 
		label="actionaz"
		"actiona" -- "actionaz";
	}
	subgraph "activemq" { 
		label="activemq"
		"adduser" -- "activemq";
		"default-jre-headless" -- "activemq";
		"java7-runtime-headless," -- "activemq";
		"libactivemq-java" -- "activemq";
		"liblog4j1.2-java," -- "activemq";
		"lsb-base" -- "activemq";
	}
	subgraph "libactivemq-java" { 
		label="libactivemq-java"
		"libactivemq-protobuf-java," -- "libactivemq-java";
		"libhawtbuf-java," -- "libactivemq-java";
		"libshiro-java," -- "libactivemq-java";
		"libspring-beans-java," -- "libactivemq-java";
		"libspring-context-java," -- "libactivemq-java";
		"libspring-core-java," -- "libactivemq-java";
		"libspring-jms-java," -- "libactivemq-java";
		"libspring-orm-java," -- "libactivemq-java";
		"libspring-test-java," -- "libactivemq-java";
		"libxbean-java," -- "libactivemq-java";
		"glassfish-javaee," -- "libactivemq-java";
		"libapache-pom-java" -- "libactivemq-java";
		"libcommons-daemon-java," -- "libactivemq-java";
		"libcommons-lang-java" -- "libactivemq-java";
		"libcommons-pool2-java," -- "libactivemq-java";
		"libjackson2-annotations-java," -- "libactivemq-java";
		"libjackson2-core-java," -- "libactivemq-java";
		"libjackson2-databind-java," -- "libactivemq-java";
		"libjasypt-java," -- "libactivemq-java";
		"libslf4j-java," -- "libactivemq-java";
		"velocity" -- "libactivemq-java";
	}
	subgraph "libactivemq-java-doc" { 
		label="libactivemq-java-doc"
		"default-jdk-doc," -- "libactivemq-java-doc";
		"libcommons-daemon-java," -- "libactivemq-java-doc";
		"libjasypt-java-doc," -- "libactivemq-java-doc";
		"libxbean-java-doc" -- "libactivemq-java-doc";
	}
	subgraph "libactivemq-activeio-java" { 
		label="libactivemq-activeio-java"
		"glassfish-javaee," -- "libactivemq-activeio-java";
		"libcommons-logging-java" -- "libactivemq-activeio-java";
	}
	subgraph "libactivemq-activeio-java-doc" { 
		label="libactivemq-activeio-java-doc"
		"glassfish-javaee," -- "libactivemq-activeio-java-doc";
		"libcommons-logging-java" -- "libactivemq-activeio-java-doc";
	}
	subgraph "activity-log-manager" { 
		label="activity-log-manager"
		"python," -- "activity-log-manager";
		"zeitgeist-core" -- "activity-log-manager";
		"zeitgeist" -- "activity-log-manager";
		"python-gtk2," -- "activity-log-manager";
		"python-cairo," -- "activity-log-manager";
		"python-zeitgeist" -- "activity-log-manager";
	}
	subgraph "libcaf-core0.13.2" { 
		label="libcaf-core0.13.2"
		"libc6" -- "libcaf-core0.13.2";
		"libgcc1" -- "libcaf-core0.13.2";
		"libstdc++6" -- "libcaf-core0.13.2";
	}
	subgraph "libcaf-dev" { 
		label="libcaf-dev"
		"libcaf-core0.13.2" -- "libcaf-dev";
		"libcaf-io0.13.2" -- "libcaf-dev";
	}
	subgraph "libcaf-io0.13.2" { 
		label="libcaf-io0.13.2"
		"libc6" -- "libcaf-io0.13.2";
		"libcaf-core0.13.2," -- "libcaf-io0.13.2";
		"libgcc1" -- "libcaf-io0.13.2";
		"libstdc++6" -- "libcaf-io0.13.2";
	}
	subgraph "adabrowse" { 
		label="adabrowse"
		"libasis2015," -- "adabrowse";
		"libc6" -- "adabrowse";
		"libgcc1" -- "adabrowse";
		"libgnat-6" -- "adabrowse";
		"libgnatvsn6" -- "adabrowse";
		"gnat," -- "adabrowse";
		"gnat-6" -- "adabrowse";
	}
	subgraph "adacgi3" { 
		label="adacgi3"
		"gnat," -- "adacgi3";
		"gnat-6" -- "adacgi3";
	}
	subgraph "adacontrol" { 
		label="adacontrol"
		"libasis2015," -- "adacontrol";
		"libc6" -- "adacontrol";
		"libgcc1" -- "adacontrol";
		"libgnat-6" -- "adacontrol";
		"libgnatvsn6" -- "adacontrol";
	}
	subgraph "adanaxisgpl" { 
		label="adanaxisgpl"
		"adanaxisgpl-data" -- "adanaxisgpl";
		"libc6" -- "adanaxisgpl";
		"libgcc1" -- "adanaxisgpl";
		"libgl1-mesa-glx" -- "adanaxisgpl";
		"libgl1," -- "adanaxisgpl";
		"libglu1-mesa" -- "adanaxisgpl";
		"libglu1," -- "adanaxisgpl";
		"libpcre3," -- "adanaxisgpl";
		"libsdl-mixer1.2," -- "adanaxisgpl";
		"libsdl1.2debian" -- "adanaxisgpl";
		"libstdc++6" -- "adanaxisgpl";
		"libtiff5" -- "adanaxisgpl";
	}
	subgraph "adapterremoval" { 
		label="adapterremoval"
		"libbz2-1.0," -- "adapterremoval";
		"libc6" -- "adapterremoval";
		"libgcc1" -- "adapterremoval";
		"libstdc++6" -- "adapterremoval";
		"zlib1g" -- "adapterremoval";
	}
	subgraph "libadasockets6" { 
		label="libadasockets6"
		"libc6" -- "libadasockets6";
		"libgcc1" -- "libadasockets6";
	}
	subgraph "libadasockets6-dev" { 
		label="libadasockets6-dev"
		"gnat," -- "libadasockets6-dev";
		"gnat-6," -- "libadasockets6-dev";
		"libadasockets6" -- "libadasockets6-dev";
		"dpkg" -- "libadasockets6-dev";
		"install-info" -- "libadasockets6-dev";
	}
	subgraph "adcli" { 
		label="adcli"
		"libsasl2-modules-gssapi-mit," -- "adcli";
		"libc6" -- "adcli";
		"libcomerr2" -- "adcli";
		"libgssapi-krb5-2" -- "adcli";
		"libk5crypto3" -- "adcli";
		"libkrb5-3" -- "adcli";
		"libldap-2.4-2" -- "adcli";
	}
	subgraph "addresses-goodies-for-gnustep" { 
		label="addresses-goodies-for-gnustep"
		"libaddresses0" -- "addresses-goodies-for-gnustep";
		"libc6" -- "addresses-goodies-for-gnustep";
		"libgnustep-base1.24" -- "addresses-goodies-for-gnustep";
		"libobjc4" -- "addresses-goodies-for-gnustep";
	}
	subgraph "addresses.framework" { 
		label="addresses.framework"
		"libaddresses-dev," -- "addresses.framework";
		"libaddresses0" -- "addresses.framework";
	}
	subgraph "addressmanager.app" { 
		label="addressmanager.app"
		"dpkg" -- "addressmanager.app";
		"gnustep-back0.25," -- "addressmanager.app";
		"gnustep-gui-runtime," -- "addressmanager.app";
		"libaddresses0" -- "addressmanager.app";
		"libaddressview0" -- "addressmanager.app";
		"libc6" -- "addressmanager.app";
		"libgnustep-base1.24" -- "addressmanager.app";
		"libgnustep-gui0.25," -- "addressmanager.app";
		"libobjc4" -- "addressmanager.app";
	}
	subgraph "addressview.framework" { 
		label="addressview.framework"
		"libaddressview-dev," -- "addressview.framework";
		"libaddressview0" -- "addressview.framework";
	}
	subgraph "libaddresses-dev" { 
		label="libaddresses-dev"
		"libaddresses0" -- "libaddresses-dev";
		"libgnustep-base-dev" -- "libaddresses-dev";
	}
	subgraph "libaddresses0" { 
		label="libaddresses0"
		"libc6" -- "libaddresses0";
		"libgcc1" -- "libaddresses0";
	}
	subgraph "libaddressview-dev" { 
		label="libaddressview-dev"
		"libaddressview0" -- "libaddressview-dev";
		"libgnustep-base-dev" -- "libaddressview-dev";
	}
	subgraph "libaddressview0" { 
		label="libaddressview0"
		"libc6" -- "libaddressview0";
	}
	subgraph "adduser" { 
		label="adduser"
		"passwd," -- "adduser";
		"debconf" -- "adduser";
		"debconf-2.0" -- "adduser";
	}
	subgraph "adequate" { 
		label="adequate"
		"perl" -- "adequate";
		"debconf" -- "adequate";
	}
	subgraph "libadios-bin" { 
		label="libadios-bin"
		"libbz2-1.0," -- "libadios-bin";
		"libc6" -- "libadios-bin";
		"libglib2.0-0" -- "libadios-bin";
		"libhdf5-100," -- "libadios-bin";
		"libhdf5-openmpi-100" -- "libadios-bin";
		"libibverbs1" -- "libadios-bin";
		"libnetcdf11" -- "libadios-bin";
		"libopenmpi2," -- "libadios-bin";
		"libsz2," -- "libadios-bin";
		"zlib1g" -- "libadios-bin";
		"python2.7," -- "libadios-bin";
		"python:any" -- "libadios-bin";
	}
	subgraph "python-adios" { 
		label="python-adios"
		"python" -- "python-adios";
		"python" -- "python-adios";
		"python2.7," -- "python-adios";
		"python:any" -- "python-adios";
		"python:any" -- "python-adios";
		"libbz2-1.0," -- "python-adios";
		"libc6" -- "python-adios";
		"libgcc1" -- "python-adios";
		"libglib2.0-0" -- "python-adios";
		"libhdf5-openmpi-100" -- "python-adios";
		"libibverbs1" -- "python-adios";
		"libopenmpi2," -- "python-adios";
		"libstdc++6" -- "python-adios";
		"libsz2," -- "python-adios";
		"zlib1g" -- "python-adios";
		"python3-adios" -- "python-adios";
	}
	subgraph "python3-adios" { 
		label="python3-adios"
		"python3" -- "python3-adios";
		"python3" -- "python3-adios";
		"python3:any" -- "python3-adios";
		"libbz2-1.0," -- "python3-adios";
		"libc6" -- "python3-adios";
		"libgcc1" -- "python3-adios";
		"libglib2.0-0" -- "python3-adios";
		"libhdf5-openmpi-100" -- "python3-adios";
		"libibverbs1" -- "python3-adios";
		"libopenmpi2," -- "python3-adios";
		"libstdc++6" -- "python3-adios";
		"libsz2," -- "python3-adios";
		"zlib1g" -- "python3-adios";
	}
	subgraph "adjtimex" { 
		label="adjtimex"
		"lsb-base" -- "adjtimex";
		"debconf" -- "adjtimex";
		"debconf-2.0," -- "adjtimex";
		"init-system-helpers" -- "adjtimex";
		"libc6" -- "adjtimex";
	}
	subgraph "adlint" { 
		label="adlint"
		"ruby" -- "adlint";
		"ruby-interpreter" -- "adlint";
	}
	subgraph "admesh" { 
		label="admesh"
		"libadmesh1" -- "admesh";
		"libc6" -- "admesh";
	}
	subgraph "libadmesh-dev" { 
		label="libadmesh-dev"
		"libadmesh1" -- "libadmesh-dev";
		"pkg-config" -- "libadmesh-dev";
	}
	subgraph "libadmesh1" { 
		label="libadmesh1"
		"libc6" -- "libadmesh1";
	}
	subgraph "adminer" { 
		label="adminer"
		"libapache2-mod-php" -- "adminer";
		"php-cgi" -- "adminer";
		"php," -- "adminer";
		"php-mysql" -- "adminer";
		"php-sqlite3" -- "adminer";
		"php-pgsql" -- "adminer";
	}
	subgraph "adns-tools" { 
		label="adns-tools"
		"libadns1" -- "adns-tools";
		"libc6" -- "adns-tools";
	}
	subgraph "libadns1" { 
		label="libadns1"
		"libc6" -- "libadns1";
	}
	subgraph "libadns1-dbg" { 
		label="libadns1-dbg"
		"libadns1" -- "libadns1-dbg";
	}
	subgraph "libadns1-dev" { 
		label="libadns1-dev"
		"libadns1" -- "libadns1-dev";
		"libc6-dev" -- "libadns1-dev";
	}
	subgraph "libadolc-dev" { 
		label="libadolc-dev"
		"libadolc2" -- "libadolc-dev";
		"libcolpack-dev" -- "libadolc-dev";
	}
	subgraph "libadolc2" { 
		label="libadolc2"
		"libboost-system1.62.0," -- "libadolc2";
		"libc6" -- "libadolc2";
		"libcolpack0v5," -- "libadolc2";
		"libgcc1" -- "libadolc2";
		"libstdc++6" -- "libadolc2";
	}
	subgraph "adonthell" { 
		label="adonthell"
		"python3:any" -- "adonthell";
		"libc6" -- "adonthell";
		"libfreetype6" -- "adonthell";
		"libgcc1" -- "adonthell";
		"libpython3.5" -- "adonthell";
		"libsdl2-2.0-0" -- "adonthell";
		"libsdl2-mixer-2.0-0" -- "adonthell";
		"libsdl2-ttf-2.0-0" -- "adonthell";
		"libstdc++6" -- "adonthell";
		"libvorbis0a" -- "adonthell";
		"libvorbisfile3" -- "adonthell";
		"zlib1g" -- "adonthell";
	}
	subgraph "adonthell-data" { 
		label="adonthell-data"
		"adonthell" -- "adonthell-data";
	}
	subgraph "adplay" { 
		label="adplay"
		"libadplug-2.2.1-0v5" -- "adplay";
		"libasound2" -- "adplay";
		"libbinio1v5" -- "adplay";
		"libc6" -- "adplay";
		"libesd0" -- "adplay";
		"libgcc1" -- "adplay";
		"libsdl1.2debian" -- "adplay";
		"libstdc++6" -- "adplay";
	}
	subgraph "adplug-utils" { 
		label="adplug-utils"
		"libadplug-2.2.1-0v5" -- "adplug-utils";
		"libbinio1v5" -- "adplug-utils";
		"libc6" -- "adplug-utils";
		"libgcc1" -- "adplug-utils";
		"libstdc++6" -- "adplug-utils";
	}
	subgraph "libadplug-2.2.1-0v5" { 
		label="libadplug-2.2.1-0v5"
		"libbinio1v5" -- "libadplug-2.2.1-0v5";
		"libc6" -- "libadplug-2.2.1-0v5";
		"libgcc1" -- "libadplug-2.2.1-0v5";
		"libstdc++6" -- "libadplug-2.2.1-0v5";
	}
	subgraph "libadplug-dev" { 
		label="libadplug-dev"
		"libadplug-2.2.1-0v5" -- "libadplug-dev";
		"libbinio-dev" -- "libadplug-dev";
	}
	subgraph "adun-core" { 
		label="adun-core"
		"libc6" -- "adun-core";
		"libgcc1" -- "adun-core";
		"libgnustep-base1.24" -- "adun-core";
		"libgsl2," -- "adun-core";
		"libobjc4" -- "adun-core";
		"gnustep-fslayout-fhs" -- "adun-core";
	}
	subgraph "adun.app" { 
		label="adun.app"
		"adun-core" -- "adun.app";
		"gnustep-back0.25," -- "adun.app";
		"gnustep-gui-runtime," -- "adun.app";
		"libc6" -- "adun.app";
		"libgcc1" -- "adun.app";
		"libgnustep-base1.24" -- "adun.app";
		"libgnustep-gui0.25," -- "adun.app";
		"libobjc4" -- "adun.app";
		"libsqlclient1.7," -- "adun.app";
		"libsteptalk0" -- "adun.app";
		"steptalk," -- "adun.app";
		"gnustep-fslayout-fhs" -- "adun.app";
	}
	subgraph "adun.app-dbg" { 
		label="adun.app-dbg"
		"adun-core" -- "adun.app-dbg";
		"adun.app" -- "adun.app-dbg";
		"gnustep-fslayout-fhs" -- "adun.app-dbg";
	}
	subgraph "advancecomp" { 
		label="advancecomp"
		"libc6" -- "advancecomp";
		"libgcc1" -- "advancecomp";
		"libstdc++6" -- "advancecomp";
		"zlib1g" -- "advancecomp";
	}
	subgraph "advi" { 
		label="advi"
		"libc6" -- "advi";
		"libfreetype6" -- "advi";
		"libx11-6," -- "advi";
		"libxinerama1," -- "advi";
		"tex-common" -- "advi";
		"texlive-base-bin," -- "advi";
		"texlive-base," -- "advi";
		"ghostscript-x" -- "advi";
		"perl" -- "advi";
	}
	subgraph "advi-examples" { 
		label="advi-examples"
		"tex-common" -- "advi-examples";
		"texlive-latex-base," -- "advi-examples";
		"advi," -- "advi-examples";
		"imagemagick" -- "advi-examples";
	}
	subgraph "adwaita-icon-theme" { 
		label="adwaita-icon-theme"
		"hicolor-icon-theme," -- "adwaita-icon-theme";
		"gtk-update-icon-cache," -- "adwaita-icon-theme";
		"librsvg2-common" -- "adwaita-icon-theme";
	}
	subgraph "adwaita-qt" { 
		label="adwaita-qt"
		"adwaita-qt-data" -- "adwaita-qt";
		"libc6" -- "adwaita-qt";
		"libgcc1" -- "adwaita-qt";
		"libqt5core5a" -- "adwaita-qt";
		"libqt5gui5" -- "adwaita-qt";
		"libqt5widgets5" -- "adwaita-qt";
		"libstdc++6" -- "adwaita-qt";
	}
	subgraph "adwaita-qt4" { 
		label="adwaita-qt4"
		"adwaita-qt-data" -- "adwaita-qt4";
		"libc6" -- "adwaita-qt4";
		"libgcc1" -- "adwaita-qt4";
		"libqtcore4" -- "adwaita-qt4";
		"libqtgui4" -- "adwaita-qt4";
		"libstdc++6" -- "adwaita-qt4";
	}
	subgraph "aegean" { 
		label="aegean"
		"libc6" -- "aegean";
		"libgenometools0," -- "aegean";
		"libjs-jquery," -- "aegean";
		"libjs-jquery-datatables," -- "aegean";
		"libjs-mootools" -- "aegean";
	}
	subgraph "aegean-dbg" { 
		label="aegean-dbg"
		"aegean" -- "aegean-dbg";
	}
	subgraph "aegisub" { 
		label="aegisub"
		"libasound2" -- "aegisub";
		"libass5" -- "aegisub";
		"libboost-filesystem1.62.0," -- "aegisub";
		"libboost-locale1.62.0," -- "aegisub";
		"libboost-regex1.62.0," -- "aegisub";
		"libboost-system1.62.0," -- "aegisub";
		"libboost-thread1.62.0," -- "aegisub";
		"libc6" -- "aegisub";
		"libffms2-4" -- "aegisub";
		"libfftw3-double3," -- "aegisub";
		"libfontconfig1" -- "aegisub";
		"libgcc1" -- "aegisub";
		"libgl1-mesa-glx" -- "aegisub";
		"libgl1," -- "aegisub";
		"libhunspell-1.4-0," -- "aegisub";
		"libicu57" -- "aegisub";
		"libluajit-5.1-2," -- "aegisub";
		"libpulse0" -- "aegisub";
		"libstdc++6" -- "aegisub";
		"libwxbase3.0-0v5" -- "aegisub";
		"libwxgtk3.0-0v5" -- "aegisub";
		"zlib1g" -- "aegisub";
	}
	subgraph "aegisub-dbg" { 
		label="aegisub-dbg"
		"aegisub" -- "aegisub-dbg";
	}
	subgraph "aegisub-l10n" { 
		label="aegisub-l10n"
		"aegisub" -- "aegisub-l10n";
		"aegisub" -- "aegisub-l10n";
	}
	subgraph "aeolus" { 
		label="aeolus"
		"stops," -- "aeolus";
		"libasound2" -- "aeolus";
		"libc6" -- "aeolus";
		"libclthreads2," -- "aeolus";
		"libclxclient3," -- "aeolus";
		"libgcc1" -- "aeolus";
		"libjack-jackd2-0" -- "aeolus";
		"libjack-0.116," -- "aeolus";
		"libreadline7" -- "aeolus";
		"libstdc++6" -- "aeolus";
		"libx11-6," -- "aeolus";
		"libxft2" -- "aeolus";
		"libzita-alsa-pcmi0" -- "aeolus";
	}
}
